RESOLUCIÓN DEL EXAMEN PARCIAL
…
(data5 <- data4 %>% 
  group_by(DATE = str_sub(DATE, 1, 7)) %>% 
  mutate(MissVal = sum(is.na(temp))) %>% 
  summarise(
    temp = mean(temp, na.rm = T),
    MissVal = unique(MissVal)
  ) %>% 
  dplyr::filter(DATE >= "2005-01-01" & DATE < "2005-12-31" |
                  DATE >= "2010-01-01" & DATE < "2010-12-31") %>% 
  mutate(
    DATE = as.Date(sprintf("%1$s-01", DATE)),
    month = str_sub(DATE, 6, 7)
  ))

## # A tibble: 22 x 4
##    DATE        temp MissVal month
##    <date>     <dbl>   <int> <chr>
##  1 2005-02-01  25.0       0 02   
##  2 2005-03-01  24.8       0 03   
##  3 2005-04-01  24.5       0 04   
##  4 2005-05-01  24.5       0 05   
##  5 2005-06-01  24.8       0 06   
##  6 2005-07-01  23.7       0 07   
##  7 2005-08-01  25.1       0 08   
##  8 2005-09-01  24.5       0 09   
##  9 2005-10-01  24.4       0 10   
## 10 2005-11-01  24.8       0 11   
## # ... with 12 more rows
…
