5 PROCESO DE ANÁLISIS DE LOS DATOS | ANALISIS DE CLUSTER
…
5 PROCESO DE ANÁLISIS DE LOS DATOS

5.1 Análisis Exploratorio de Datos

Para el presente análisis usamos la data descargada anteriormente, las cuales exploraremos y ordenaremos adecuadamente dichos datos.

5.1.1 Importamos los datos

Cargamos los datos crudos y visualizamos los datos en desorden, y con valores NA, las cuales limpiamos y tranformamos.

data0 <- read.csv("DEPARTAMENTOS (1) - copia.csv", sep = ";")
tibble(data0)

## # A tibble: 25 x 39
##    Departamento Poblacion Numero.de.establecimientos.pe~ Sexo_F Sexo_M Sin.nivel
##    <chr>            <int>                          <int>  <int>  <int>     <int>
##  1 AMAZONAS        379384                              2     35    824        35
##  2 ANCASH         1083519                              2    156   3179         3
##  3 APURIMAC        405759                              2     61    549        21
##  4 AREQUIPA       1382730                              3    158   2226        48
##  5 AYACUCHO        616176                              2    192   2347        89
##  6 CAJAMARCA      1341012                              4    107   1867       110
##  7 CALLAO          994494                              1     NA   3199        16
##  8 CUSCO          1205527                              3    186   2586        70
##  9 HUANCAVELICA    347639                              1      9    191         3
## 10 HUANUCO         721047                              1    162   2392       145
## # ... with 15 more rows, and 33 more variables: Educacion.inicial <int>,
## #   Primaria.completa <int>, Primaria.incompleta <int>, Secund..completa <int>,
## #   Secund..incompleta <int>, Sup..no.universitaria.completa <int>,
## #   Sup..no.universitaria.incompleta <int>, Sup..universitaria.completa <int>,
## #   Sup..universitaria.incompleta <int>, Postgrado <int>, no.aplica <int>,
## #   Delitos.contra.el.patrimonio <int>,
## #   Delitos.contra.la.seguridad.publica <int>, ...
…
#View(data0)
tibble(data0)

## # A tibble: 25 x 39
##    Dep         Pob   NEP   S_F   S_M   SNE  NE_I NE_PC ND_PI NE_SC NE_SI NE_SnUC
##    <chr>     <int> <int> <int> <int> <int> <int> <int> <int> <int> <int>   <int>
##  1 AMAZONAS 3.79e5     2    35   824    35     3   139   265   165   184      24
##  2 ANCASH   1.08e6     2   156  3179     3     3   316   529   834  1164     125
##  3 APURIMAC 4.06e5     2    61   549    21    NA    65   128   166   168      15
##  4 AREQUIPA 1.38e6     3   158  2226    48    NA   167   310   693   659     159
##  5 AYACUCHO 6.16e5     2   192  2347    89     5   284   527   638   733      88
##  6 CAJAMAR~ 1.34e6     4   107  1867   110     3   341   441   416   399      70
##  7 CALLAO   9.94e5     1    NA  3199    16     4   196   227   869   990     102
##  8 CUSCO    1.21e6     3   186  2586    70     3   230   530   801   727      91
##  9 HUANCAV~ 3.48e5     1     9   191     3    NA    22    39    54    42      17
## 10 HUANUCO  7.21e5     1   162  2392   145     8   290   643   564   650      57
## # ... with 15 more rows, and 27 more variables: NE_SnUI <int>, NE_SUC <int>,
## #   NE_SUI <int>, NE_Pstgr <int>, NE_NAp <int>, DcP <int>, DcSegP <int>,
## #   DcL <int>, DcVCS <int>, DcF <int>, DcAP <int>, DcTP <int>, DcOFM <int>,
## #   DcFP <int>, Dt <int>, DcCBFN <int>, DcH <int>, Otros <int>, E_18_19 <int>,
## #   E_20_24 <int>, E_25_29 <int>, E_30_34 <int>, E_35_39 <int>, E_40_44 <int>,
## #   E_45_49 <int>, E_50_59 <int>, E_60_ <chr>
…
